%YAML 1.1
%TAG !u! tag:unity3d.com,2011:
--- !u!74 &7400000
AnimationClip:
  m_ObjectHideFlags: 0
  m_PrefabParentObject: {fileID: 0}
  m_PrefabInternal: {fileID: 0}
  m_Name: GauntletHP@HIt-2
  serializedVersion: 6
  m_Legacy: 0
  m_Compressed: 0
  m_UseHighQualityCurve: 1
  m_RotationCurves: []
  m_CompressedRotationCurves: []
  m_EulerCurves: []
  m_PositionCurves: []
  m_ScaleCurves: []
  m_FloatCurves: []
  m_PPtrCurves:
  - curve:
    - time: 0
      value: {fileID: 21300000, guid: 58265307e84d19449bdb903f1d75898f, type: 3}
    - time: 0.083333336
      value: {fileID: 21300000, guid: 0ddd47b7ed583c5499b898e8cc0517d5, type: 3}
    - time: 0.16666667
      value: {fileID: 21300000, guid: 2d6925d3d3c02f34b970b467d347c6c9, type: 3}
    - time: 0.25
      value: {fileID: 21300000, guid: 8f8365662948c574998b9838e85f9df0, type: 3}
    - time: 0.33333334
      value: {fileID: 21300000, guid: cde9a0ac4de1c6f4aaa4207acb2a1b91, type: 3}
    - time: 0.41666666
      value: {fileID: 21300000, guid: 732fedf58b7ea304ebce8bdb1f151fef, type: 3}
    - time: 0.5
      value: {fileID: 21300000, guid: e2a9c4faf8067c24983db7092cf66386, type: 3}
    - time: 0.5833333
      value: {fileID: 21300000, guid: ff2642a02199cda41bfa5776b094e037, type: 3}
    - time: 0.6666667
      value: {fileID: 21300000, guid: b30b5795cc64ecb4bac47f41e990edd7, type: 3}
    - time: 0.75
      value: {fileID: 21300000, guid: 7ebe8a0a4be530248b59daae2bebfa6b, type: 3}
    - time: 0.8333333
      value: {fileID: 21300000, guid: ae02158d8d1eee94eb6c9caecf1f5344, type: 3}
    - time: 0.9166667
      value: {fileID: 21300000, guid: 91de37f218ffa274f95d2d3cc1a799d6, type: 3}
    - time: 1
      value: {fileID: 21300000, guid: 09216e2569109714e9d90443e427fb41, type: 3}
    - time: 1.0833334
      value: {fileID: 21300000, guid: fe912b214dfa442488311410019789ac, type: 3}
    - time: 1.1666666
      value: {fileID: 21300000, guid: e606430aa22863f4a90f54dcd7104f01, type: 3}
    - time: 1.25
      value: {fileID: 21300000, guid: 1b224e3ef34564a45b934598a4390261, type: 3}
    - time: 1.3333334
      value: {fileID: 21300000, guid: 11716c16dc3b52342bba7856acc8e190, type: 3}
    - time: 1.4166666
      value: {fileID: 21300000, guid: b39fe2ddc096c20418007b640cd87d8e, type: 3}
    attribute: m_Sprite
    path: 
    classID: 212
    script: {fileID: 0}
  m_SampleRate: 12
  m_WrapMode: 0
  m_Bounds:
    m_Center: {x: 0, y: 0, z: 0}
    m_Extent: {x: 0, y: 0, z: 0}
  m_ClipBindingConstant:
    genericBindings:
    - serializedVersion: 2
      path: 0
      attribute: 0
      script: {fileID: 0}
      typeID: 212
      customType: 23
      isPPtrCurve: 1
    pptrCurveMapping:
    - {fileID: 21300000, guid: 58265307e84d19449bdb903f1d75898f, type: 3}
    - {fileID: 21300000, guid: 0ddd47b7ed583c5499b898e8cc0517d5, type: 3}
    - {fileID: 21300000, guid: 2d6925d3d3c02f34b970b467d347c6c9, type: 3}
    - {fileID: 21300000, guid: 8f8365662948c574998b9838e85f9df0, type: 3}
    - {fileID: 21300000, guid: cde9a0ac4de1c6f4aaa4207acb2a1b91, type: 3}
    - {fileID: 21300000, guid: 732fedf58b7ea304ebce8bdb1f151fef, type: 3}
    - {fileID: 21300000, guid: e2a9c4faf8067c24983db7092cf66386, type: 3}
    - {fileID: 21300000, guid: ff2642a02199cda41bfa5776b094e037, type: 3}
    - {fileID: 21300000, guid: b30b5795cc64ecb4bac47f41e990edd7, type: 3}
    - {fileID: 21300000, guid: 7ebe8a0a4be530248b59daae2bebfa6b, type: 3}
    - {fileID: 21300000, guid: ae02158d8d1eee94eb6c9caecf1f5344, type: 3}
    - {fileID: 21300000, guid: 91de37f218ffa274f95d2d3cc1a799d6, type: 3}
    - {fileID: 21300000, guid: 09216e2569109714e9d90443e427fb41, type: 3}
    - {fileID: 21300000, guid: fe912b214dfa442488311410019789ac, type: 3}
    - {fileID: 21300000, guid: e606430aa22863f4a90f54dcd7104f01, type: 3}
    - {fileID: 21300000, guid: 1b224e3ef34564a45b934598a4390261, type: 3}
    - {fileID: 21300000, guid: 11716c16dc3b52342bba7856acc8e190, type: 3}
    - {fileID: 21300000, guid: b39fe2ddc096c20418007b640cd87d8e, type: 3}
  m_AnimationClipSettings:
    serializedVersion: 2
    m_AdditiveReferencePoseClip: {fileID: 0}
    m_AdditiveReferencePoseTime: 0
    m_StartTime: 0
    m_StopTime: 1.5
    m_OrientationOffsetY: 0
    m_Level: 0
    m_CycleOffset: 0
    m_HasAdditiveReferencePose: 0
    m_LoopTime: 1
    m_LoopBlend: 0
    m_LoopBlendOrientation: 0
    m_LoopBlendPositionY: 0
    m_LoopBlendPositionXZ: 0
    m_KeepOriginalOrientation: 0
    m_KeepOriginalPositionY: 1
    m_KeepOriginalPositionXZ: 0
    m_HeightFromFeet: 0
    m_Mirror: 0
  m_EditorCurves: []
  m_EulerEditorCurves: []
  m_HasGenericRootTransform: 0
  m_HasMotionFloatCurves: 0
  m_GenerateMotionCurves: 0
  m_Events: []
