%YAML 1.1
%TAG !u! tag:unity3d.com,2011:
--- !u!74 &7400000
AnimationClip:
  m_ObjectHideFlags: 0
  m_PrefabParentObject: {fileID: 0}
  m_PrefabInternal: {fileID: 0}
  m_Name: GauntletHP@3HP
  serializedVersion: 6
  m_Legacy: 0
  m_Compressed: 0
  m_UseHighQualityCurve: 1
  m_RotationCurves: []
  m_CompressedRotationCurves: []
  m_EulerCurves: []
  m_PositionCurves: []
  m_ScaleCurves: []
  m_FloatCurves: []
  m_PPtrCurves:
  - curve:
    - time: 0
      value: {fileID: 21300000, guid: bef519aa9048a1f478e2edde2bf8d4ff, type: 3}
    - time: 0.083333336
      value: {fileID: 21300000, guid: 753694adf17452f4cafc882883091642, type: 3}
    - time: 0.16666667
      value: {fileID: 21300000, guid: c4a9350c86ce3104e825defa60a15015, type: 3}
    - time: 0.25
      value: {fileID: 21300000, guid: e9f3f3f55063ab94faceb38c133ae7ec, type: 3}
    - time: 0.33333334
      value: {fileID: 21300000, guid: c5be25576b4fc484080232688939d308, type: 3}
    - time: 0.41666666
      value: {fileID: 21300000, guid: f47f7b2c45d0e0943a89f4570508c0d9, type: 3}
    - time: 0.5
      value: {fileID: 21300000, guid: fef417500a3df1a428e06214c4cbaf43, type: 3}
    - time: 0.5833333
      value: {fileID: 21300000, guid: 5bd5a91bd57c0d647b4bb5bc1bcbab9f, type: 3}
    - time: 0.6666667
      value: {fileID: 21300000, guid: cf66a120c849f4e4fbb7fc4efa91a592, type: 3}
    - time: 0.75
      value: {fileID: 21300000, guid: 150fb5d96c7b4d44d8aac06abe8778db, type: 3}
    - time: 0.8333333
      value: {fileID: 21300000, guid: 787cdd662b63c9a47b3ce301d3782793, type: 3}
    - time: 0.9166667
      value: {fileID: 21300000, guid: 3e96e9b958c77af4399bef4454ea7a01, type: 3}
    - time: 1
      value: {fileID: 21300000, guid: 475e961f7dd455d479a0fa09319f022e, type: 3}
    - time: 1.0833334
      value: {fileID: 21300000, guid: 66f0e15a64bd7df4d903a611e0a352dc, type: 3}
    - time: 1.1666666
      value: {fileID: 21300000, guid: e67e39e32dd3e634bbc2ece5d890df09, type: 3}
    - time: 1.25
      value: {fileID: 21300000, guid: 8e7c7bf4840c04445a12a8bacf8273dc, type: 3}
    - time: 1.3333334
      value: {fileID: 21300000, guid: a537939411da1654ba53d8b0260ac2a2, type: 3}
    - time: 1.4166666
      value: {fileID: 21300000, guid: c43160f0f1c9cb04187b5598ff66da41, type: 3}
    attribute: m_Sprite
    path: 
    classID: 212
    script: {fileID: 0}
  m_SampleRate: 12
  m_WrapMode: 0
  m_Bounds:
    m_Center: {x: 0, y: 0, z: 0}
    m_Extent: {x: 0, y: 0, z: 0}
  m_ClipBindingConstant:
    genericBindings:
    - serializedVersion: 2
      path: 0
      attribute: 0
      script: {fileID: 0}
      typeID: 212
      customType: 23
      isPPtrCurve: 1
    pptrCurveMapping:
    - {fileID: 21300000, guid: bef519aa9048a1f478e2edde2bf8d4ff, type: 3}
    - {fileID: 21300000, guid: 753694adf17452f4cafc882883091642, type: 3}
    - {fileID: 21300000, guid: c4a9350c86ce3104e825defa60a15015, type: 3}
    - {fileID: 21300000, guid: e9f3f3f55063ab94faceb38c133ae7ec, type: 3}
    - {fileID: 21300000, guid: c5be25576b4fc484080232688939d308, type: 3}
    - {fileID: 21300000, guid: f47f7b2c45d0e0943a89f4570508c0d9, type: 3}
    - {fileID: 21300000, guid: fef417500a3df1a428e06214c4cbaf43, type: 3}
    - {fileID: 21300000, guid: 5bd5a91bd57c0d647b4bb5bc1bcbab9f, type: 3}
    - {fileID: 21300000, guid: cf66a120c849f4e4fbb7fc4efa91a592, type: 3}
    - {fileID: 21300000, guid: 150fb5d96c7b4d44d8aac06abe8778db, type: 3}
    - {fileID: 21300000, guid: 787cdd662b63c9a47b3ce301d3782793, type: 3}
    - {fileID: 21300000, guid: 3e96e9b958c77af4399bef4454ea7a01, type: 3}
    - {fileID: 21300000, guid: 475e961f7dd455d479a0fa09319f022e, type: 3}
    - {fileID: 21300000, guid: 66f0e15a64bd7df4d903a611e0a352dc, type: 3}
    - {fileID: 21300000, guid: e67e39e32dd3e634bbc2ece5d890df09, type: 3}
    - {fileID: 21300000, guid: 8e7c7bf4840c04445a12a8bacf8273dc, type: 3}
    - {fileID: 21300000, guid: a537939411da1654ba53d8b0260ac2a2, type: 3}
    - {fileID: 21300000, guid: c43160f0f1c9cb04187b5598ff66da41, type: 3}
  m_AnimationClipSettings:
    serializedVersion: 2
    m_AdditiveReferencePoseClip: {fileID: 0}
    m_AdditiveReferencePoseTime: 0
    m_StartTime: 0
    m_StopTime: 1.5
    m_OrientationOffsetY: 0
    m_Level: 0
    m_CycleOffset: 0
    m_HasAdditiveReferencePose: 0
    m_LoopTime: 1
    m_LoopBlend: 0
    m_LoopBlendOrientation: 0
    m_LoopBlendPositionY: 0
    m_LoopBlendPositionXZ: 0
    m_KeepOriginalOrientation: 0
    m_KeepOriginalPositionY: 1
    m_KeepOriginalPositionXZ: 0
    m_HeightFromFeet: 0
    m_Mirror: 0
  m_EditorCurves: []
  m_EulerEditorCurves: []
  m_HasGenericRootTransform: 0
  m_HasMotionFloatCurves: 0
  m_GenerateMotionCurves: 0
  m_Events: []
