%YAML 1.1
%TAG !u! tag:unity3d.com,2011:
--- !u!1001 &100100000
Prefab:
  m_ObjectHideFlags: 1
  serializedVersion: 2
  m_Modification:
    m_TransformParent: {fileID: 0}
    m_Modifications: []
    m_RemovedComponents: []
  m_ParentPrefab: {fileID: 0}
  m_RootGameObject: {fileID: 1000012674329276}
  m_IsPrefabParent: 1
--- !u!1 &1000012674329276
GameObject:
  m_ObjectHideFlags: 0
  m_PrefabParentObject: {fileID: 0}
  m_PrefabInternal: {fileID: 100100000}
  serializedVersion: 5
  m_Component:
  - component: {fileID: 4000012659030676}
  - component: {fileID: 114000011744501634}
  - component: {fileID: 114000012342941982}
  - component: {fileID: 114000011226809484}
  m_Layer: 0
  m_Name: Spatial Mapping
  m_TagString: Untagged
  m_Icon: {fileID: 0}
  m_NavMeshLayer: 0
  m_StaticEditorFlags: 0
  m_IsActive: 1
--- !u!4 &4000012659030676
Transform:
  m_ObjectHideFlags: 1
  m_PrefabParentObject: {fileID: 0}
  m_PrefabInternal: {fileID: 100100000}
  m_GameObject: {fileID: 1000012674329276}
  m_LocalRotation: {x: 0, y: 0, z: 0, w: 1}
  m_LocalPosition: {x: 0, y: 0, z: 0}
  m_LocalScale: {x: 1, y: 1, z: 1}
  m_Children: []
  m_Father: {fileID: 0}
  m_RootOrder: 0
  m_LocalEulerAnglesHint: {x: 0, y: 0, z: 0}
--- !u!114 &114000011226809484
MonoBehaviour:
  m_ObjectHideFlags: 1
  m_PrefabParentObject: {fileID: 0}
  m_PrefabInternal: {fileID: 100100000}
  m_GameObject: {fileID: 1000012674329276}
  m_Enabled: 1
  m_EditorHideFlags: 0
  m_Script: {fileID: 247442469, guid: f7b54ff4a43d4fcf81b4538b678e0bcc, type: 3}
  m_Name: 
  m_EditorClassIdentifier: 
  m_SurfaceParent: {fileID: 0}
  m_FreezeUpdates: 0
  m_VolumeType: 1
  m_SphereRadius: 2
  m_HalfBoxExtents: {x: 4, y: 4, z: 4}
  m_LodType: 1
  m_NumUpdatesBeforeRemoval: 10
  m_SecondsBetweenUpdates: 2.5
  m_Layer: 0
  m_Material: {fileID: 0}
  m_EnableCollisions: 1
--- !u!114 &114000011744501634
MonoBehaviour:
  m_ObjectHideFlags: 1
  m_PrefabParentObject: {fileID: 0}
  m_PrefabInternal: {fileID: 100100000}
  m_GameObject: {fileID: 1000012674329276}
  m_Enabled: 1
  m_EditorHideFlags: 0
  m_Script: {fileID: 11500000, guid: 5661887db3892ca45bb9a35b77dc4ea4, type: 3}
  m_Name: 
  m_EditorClassIdentifier: 
  DrawMaterial: {fileID: 0}
  drawVisualMeshes: 0
--- !u!114 &114000012342941982
MonoBehaviour:
  m_ObjectHideFlags: 1
  m_PrefabParentObject: {fileID: 0}
  m_PrefabInternal: {fileID: 100100000}
  m_GameObject: {fileID: 1000012674329276}
  m_Enabled: 1
  m_EditorHideFlags: 0
  m_Script: {fileID: -594688902, guid: f7b54ff4a43d4fcf81b4538b678e0bcc, type: 3}
  m_Name: 
  m_EditorClassIdentifier: 
  m_SurfaceParent: {fileID: 0}
  m_FreezeUpdates: 0
  m_VolumeType: 1
  m_SphereRadius: 2
  m_HalfBoxExtents: {x: 4, y: 4, z: 4}
  m_LodType: 1
  m_NumUpdatesBeforeRemoval: 10
  m_SecondsBetweenUpdates: 2.5
  m_CurrentRenderState: 1
  m_VisualMaterial: {fileID: 0}
  m_OcclusionMaterial: {fileID: 0}
