%YAML 1.1
%TAG !u! tag:unity3d.com,2011:
--- !u!74 &7400000
AnimationClip:
  m_ObjectHideFlags: 0
  m_PrefabParentObject: {fileID: 0}
  m_PrefabInternal: {fileID: 0}
  m_Name: HealthScores@2
  serializedVersion: 6
  m_Legacy: 0
  m_Compressed: 0
  m_UseHighQualityCurve: 1
  m_RotationCurves: []
  m_CompressedRotationCurves: []
  m_EulerCurves: []
  m_PositionCurves: []
  m_ScaleCurves: []
  m_FloatCurves: []
  m_PPtrCurves:
  - curve:
    - time: 0
      value: {fileID: 21300000, guid: 9c4ba25e7dfd8354f85443002e0367d4, type: 3}
    - time: 0.083333336
      value: {fileID: 21300000, guid: aae505de5592c2a459bb7d9d3f9cff65, type: 3}
    - time: 0.16666667
      value: {fileID: 21300000, guid: 0b718ffec1f6fa544b0f063322c1819e, type: 3}
    - time: 0.25
      value: {fileID: 21300000, guid: f8901501f62d6854bae9eb560ea813af, type: 3}
    - time: 0.33333334
      value: {fileID: 21300000, guid: 59fa0d429f04c6b4f83b8723c8ea5425, type: 3}
    - time: 0.41666666
      value: {fileID: 21300000, guid: f18f6b99cbd206d48bab95f3c2ba91e6, type: 3}
    - time: 0.5
      value: {fileID: 21300000, guid: f1514196e2d1777428999dbc1ea083ae, type: 3}
    - time: 0.5833333
      value: {fileID: 21300000, guid: a84f74d4f2c2ff44fb1c8af6d1124bd2, type: 3}
    - time: 0.6666667
      value: {fileID: 21300000, guid: e3fc3e43ed900f145a995ad2f0cc34bb, type: 3}
    - time: 0.75
      value: {fileID: 21300000, guid: 754fc808470476741aa252bdd2479fb2, type: 3}
    - time: 0.8333333
      value: {fileID: 21300000, guid: 191454631ae5aba44b0ec1b7a65c9052, type: 3}
    - time: 0.9166667
      value: {fileID: 21300000, guid: 69a4343ecfbf0d64bb2a732393d3b517, type: 3}
    - time: 1
      value: {fileID: 21300000, guid: fec728aae3999bd4787c236412734d3f, type: 3}
    - time: 1.0833334
      value: {fileID: 21300000, guid: 2ee15230db9b13c4c818c2dad8c5b831, type: 3}
    - time: 1.1666666
      value: {fileID: 21300000, guid: 8203ca2cac54062478374951424ce787, type: 3}
    - time: 1.25
      value: {fileID: 21300000, guid: 29dc4f380d8605949a3ac827a88caa60, type: 3}
    - time: 1.3333334
      value: {fileID: 21300000, guid: 2c75032bb1c89184aa43b67eeba8d47c, type: 3}
    - time: 1.4166666
      value: {fileID: 21300000, guid: 2012e2e7c439ae04d9de1480520b929e, type: 3}
    - time: 1.5
      value: {fileID: 21300000, guid: 01f99f511fe17e84bac0b2602be1aff7, type: 3}
    - time: 1.5833334
      value: {fileID: 21300000, guid: a8de41823d46a0e4aab31a4a9580d490, type: 3}
    - time: 1.6666666
      value: {fileID: 21300000, guid: d0028960702a88342b7915cd568ebe28, type: 3}
    - time: 1.75
      value: {fileID: 21300000, guid: c45228737a4c1124e82bf5cdd259c24b, type: 3}
    - time: 1.8333334
      value: {fileID: 21300000, guid: 9009df1658f55f14ab5ce576ad642d56, type: 3}
    - time: 1.9166666
      value: {fileID: 21300000, guid: 730ebefadb213cf42856cabfc4746efe, type: 3}
    - time: 2
      value: {fileID: 21300000, guid: be9a592989a428d4480a99505d6995c8, type: 3}
    - time: 2.0833333
      value: {fileID: 21300000, guid: 1fb7a5c41752103498e40e1c07395d3d, type: 3}
    - time: 2.1666667
      value: {fileID: 21300000, guid: faa3272fca9df6d47b2856e71c21590a, type: 3}
    - time: 2.25
      value: {fileID: 21300000, guid: c62ea102dd1a53842a6fb9dae47bcc9e, type: 3}
    - time: 2.3333333
      value: {fileID: 21300000, guid: 3b4451170409dae4d9a88811bd0cce57, type: 3}
    - time: 2.4166667
      value: {fileID: 21300000, guid: 37f3cba32fa6969458f23c77f4fdb162, type: 3}
    - time: 2.5
      value: {fileID: 21300000, guid: 819df4a93e8e0bd499c5eb7945d86edf, type: 3}
    - time: 2.5833333
      value: {fileID: 21300000, guid: f0df5be955227d9498b20422e47c549f, type: 3}
    - time: 2.6666667
      value: {fileID: 21300000, guid: 17df046fad6ba8d42949d7beb304784b, type: 3}
    - time: 2.75
      value: {fileID: 21300000, guid: 4305c15cc0e6ede48b0faeb4e89fcb67, type: 3}
    - time: 2.8333333
      value: {fileID: 21300000, guid: f92f3526c87048940aa7df048406c0c0, type: 3}
    - time: 2.9166667
      value: {fileID: 21300000, guid: 9e11532779adae04a94f0ce342415ef0, type: 3}
    attribute: m_Sprite
    path: 
    classID: 212
    script: {fileID: 0}
  m_SampleRate: 12
  m_WrapMode: 0
  m_Bounds:
    m_Center: {x: 0, y: 0, z: 0}
    m_Extent: {x: 0, y: 0, z: 0}
  m_ClipBindingConstant:
    genericBindings:
    - serializedVersion: 2
      path: 0
      attribute: 0
      script: {fileID: 0}
      typeID: 212
      customType: 23
      isPPtrCurve: 1
    pptrCurveMapping:
    - {fileID: 21300000, guid: 9c4ba25e7dfd8354f85443002e0367d4, type: 3}
    - {fileID: 21300000, guid: aae505de5592c2a459bb7d9d3f9cff65, type: 3}
    - {fileID: 21300000, guid: 0b718ffec1f6fa544b0f063322c1819e, type: 3}
    - {fileID: 21300000, guid: f8901501f62d6854bae9eb560ea813af, type: 3}
    - {fileID: 21300000, guid: 59fa0d429f04c6b4f83b8723c8ea5425, type: 3}
    - {fileID: 21300000, guid: f18f6b99cbd206d48bab95f3c2ba91e6, type: 3}
    - {fileID: 21300000, guid: f1514196e2d1777428999dbc1ea083ae, type: 3}
    - {fileID: 21300000, guid: a84f74d4f2c2ff44fb1c8af6d1124bd2, type: 3}
    - {fileID: 21300000, guid: e3fc3e43ed900f145a995ad2f0cc34bb, type: 3}
    - {fileID: 21300000, guid: 754fc808470476741aa252bdd2479fb2, type: 3}
    - {fileID: 21300000, guid: 191454631ae5aba44b0ec1b7a65c9052, type: 3}
    - {fileID: 21300000, guid: 69a4343ecfbf0d64bb2a732393d3b517, type: 3}
    - {fileID: 21300000, guid: fec728aae3999bd4787c236412734d3f, type: 3}
    - {fileID: 21300000, guid: 2ee15230db9b13c4c818c2dad8c5b831, type: 3}
    - {fileID: 21300000, guid: 8203ca2cac54062478374951424ce787, type: 3}
    - {fileID: 21300000, guid: 29dc4f380d8605949a3ac827a88caa60, type: 3}
    - {fileID: 21300000, guid: 2c75032bb1c89184aa43b67eeba8d47c, type: 3}
    - {fileID: 21300000, guid: 2012e2e7c439ae04d9de1480520b929e, type: 3}
    - {fileID: 21300000, guid: 01f99f511fe17e84bac0b2602be1aff7, type: 3}
    - {fileID: 21300000, guid: a8de41823d46a0e4aab31a4a9580d490, type: 3}
    - {fileID: 21300000, guid: d0028960702a88342b7915cd568ebe28, type: 3}
    - {fileID: 21300000, guid: c45228737a4c1124e82bf5cdd259c24b, type: 3}
    - {fileID: 21300000, guid: 9009df1658f55f14ab5ce576ad642d56, type: 3}
    - {fileID: 21300000, guid: 730ebefadb213cf42856cabfc4746efe, type: 3}
    - {fileID: 21300000, guid: be9a592989a428d4480a99505d6995c8, type: 3}
    - {fileID: 21300000, guid: 1fb7a5c41752103498e40e1c07395d3d, type: 3}
    - {fileID: 21300000, guid: faa3272fca9df6d47b2856e71c21590a, type: 3}
    - {fileID: 21300000, guid: c62ea102dd1a53842a6fb9dae47bcc9e, type: 3}
    - {fileID: 21300000, guid: 3b4451170409dae4d9a88811bd0cce57, type: 3}
    - {fileID: 21300000, guid: 37f3cba32fa6969458f23c77f4fdb162, type: 3}
    - {fileID: 21300000, guid: 819df4a93e8e0bd499c5eb7945d86edf, type: 3}
    - {fileID: 21300000, guid: f0df5be955227d9498b20422e47c549f, type: 3}
    - {fileID: 21300000, guid: 17df046fad6ba8d42949d7beb304784b, type: 3}
    - {fileID: 21300000, guid: 4305c15cc0e6ede48b0faeb4e89fcb67, type: 3}
    - {fileID: 21300000, guid: f92f3526c87048940aa7df048406c0c0, type: 3}
    - {fileID: 21300000, guid: 9e11532779adae04a94f0ce342415ef0, type: 3}
  m_AnimationClipSettings:
    serializedVersion: 2
    m_AdditiveReferencePoseClip: {fileID: 0}
    m_AdditiveReferencePoseTime: 0
    m_StartTime: 0
    m_StopTime: 3
    m_OrientationOffsetY: 0
    m_Level: 0
    m_CycleOffset: 0
    m_HasAdditiveReferencePose: 0
    m_LoopTime: 1
    m_LoopBlend: 0
    m_LoopBlendOrientation: 0
    m_LoopBlendPositionY: 0
    m_LoopBlendPositionXZ: 0
    m_KeepOriginalOrientation: 0
    m_KeepOriginalPositionY: 1
    m_KeepOriginalPositionXZ: 0
    m_HeightFromFeet: 0
    m_Mirror: 0
  m_EditorCurves: []
  m_EulerEditorCurves: []
  m_HasGenericRootTransform: 0
  m_HasMotionFloatCurves: 0
  m_GenerateMotionCurves: 0
  m_Events: []
