%YAML 1.1
%TAG !u! tag:unity3d.com,2011:
--- !u!74 &7400000
AnimationClip:
  m_ObjectHideFlags: 0
  m_PrefabParentObject: {fileID: 0}
  m_PrefabInternal: {fileID: 0}
  m_Name: Gauntlet@1HP
  serializedVersion: 6
  m_Legacy: 0
  m_Compressed: 0
  m_UseHighQualityCurve: 1
  m_RotationCurves: []
  m_CompressedRotationCurves: []
  m_EulerCurves: []
  m_PositionCurves: []
  m_ScaleCurves: []
  m_FloatCurves: []
  m_PPtrCurves:
  - curve:
    - time: 0
      value: {fileID: 21300000, guid: d5ef62d58881594439559e0be46c08b7, type: 3}
    - time: 0.083333336
      value: {fileID: 21300000, guid: 2b236d27e28f2b141b85cc69875e8bbd, type: 3}
    - time: 0.16666667
      value: {fileID: 21300000, guid: ec791c7bae5732a4493ff475450f99bc, type: 3}
    - time: 0.25
      value: {fileID: 21300000, guid: beb830cb863260d40a3f533b0e2adada, type: 3}
    - time: 0.33333334
      value: {fileID: 21300000, guid: 62dd925697eb67842b611ab5b10d6e79, type: 3}
    - time: 0.41666666
      value: {fileID: 21300000, guid: 1254d01c0b18de44fa4e076edadd0a6c, type: 3}
    - time: 0.5
      value: {fileID: 21300000, guid: 05869ea6df0464844a0b08b886242566, type: 3}
    - time: 0.5833333
      value: {fileID: 21300000, guid: 7823a8056f2841748b72018832c013e7, type: 3}
    - time: 0.6666667
      value: {fileID: 21300000, guid: 372b2321954cf3d4388e909070194209, type: 3}
    - time: 0.75
      value: {fileID: 21300000, guid: e62877ead4d7c2c4a90040d79c8fa145, type: 3}
    - time: 0.8333333
      value: {fileID: 21300000, guid: 20da02e5dc7f32b47affa4eab0bbb4b7, type: 3}
    - time: 0.9166667
      value: {fileID: 21300000, guid: ca839e0c8b2a52644a452b8c1f18539d, type: 3}
    - time: 1
      value: {fileID: 21300000, guid: 33b2ba4822e2e1646bdbba27946075ae, type: 3}
    - time: 1.0833334
      value: {fileID: 21300000, guid: 5df1f1384b7da574291bb0198b451b6b, type: 3}
    - time: 1.1666666
      value: {fileID: 21300000, guid: be527bf3fdad210449be9d4c46f55365, type: 3}
    - time: 1.25
      value: {fileID: 21300000, guid: 9e2697f3f273626488886c55dda860c1, type: 3}
    - time: 1.3333334
      value: {fileID: 21300000, guid: d2b29f466f629ff4bb067f5431e35d15, type: 3}
    - time: 1.4166666
      value: {fileID: 21300000, guid: 907f91e84ec99f44590cb15091609a5c, type: 3}
    attribute: m_Sprite
    path: 
    classID: 212
    script: {fileID: 0}
  m_SampleRate: 12
  m_WrapMode: 0
  m_Bounds:
    m_Center: {x: 0, y: 0, z: 0}
    m_Extent: {x: 0, y: 0, z: 0}
  m_ClipBindingConstant:
    genericBindings:
    - serializedVersion: 2
      path: 0
      attribute: 0
      script: {fileID: 0}
      typeID: 212
      customType: 23
      isPPtrCurve: 1
    pptrCurveMapping:
    - {fileID: 21300000, guid: d5ef62d58881594439559e0be46c08b7, type: 3}
    - {fileID: 21300000, guid: 2b236d27e28f2b141b85cc69875e8bbd, type: 3}
    - {fileID: 21300000, guid: ec791c7bae5732a4493ff475450f99bc, type: 3}
    - {fileID: 21300000, guid: beb830cb863260d40a3f533b0e2adada, type: 3}
    - {fileID: 21300000, guid: 62dd925697eb67842b611ab5b10d6e79, type: 3}
    - {fileID: 21300000, guid: 1254d01c0b18de44fa4e076edadd0a6c, type: 3}
    - {fileID: 21300000, guid: 05869ea6df0464844a0b08b886242566, type: 3}
    - {fileID: 21300000, guid: 7823a8056f2841748b72018832c013e7, type: 3}
    - {fileID: 21300000, guid: 372b2321954cf3d4388e909070194209, type: 3}
    - {fileID: 21300000, guid: e62877ead4d7c2c4a90040d79c8fa145, type: 3}
    - {fileID: 21300000, guid: 20da02e5dc7f32b47affa4eab0bbb4b7, type: 3}
    - {fileID: 21300000, guid: ca839e0c8b2a52644a452b8c1f18539d, type: 3}
    - {fileID: 21300000, guid: 33b2ba4822e2e1646bdbba27946075ae, type: 3}
    - {fileID: 21300000, guid: 5df1f1384b7da574291bb0198b451b6b, type: 3}
    - {fileID: 21300000, guid: be527bf3fdad210449be9d4c46f55365, type: 3}
    - {fileID: 21300000, guid: 9e2697f3f273626488886c55dda860c1, type: 3}
    - {fileID: 21300000, guid: d2b29f466f629ff4bb067f5431e35d15, type: 3}
    - {fileID: 21300000, guid: 907f91e84ec99f44590cb15091609a5c, type: 3}
  m_AnimationClipSettings:
    serializedVersion: 2
    m_AdditiveReferencePoseClip: {fileID: 0}
    m_AdditiveReferencePoseTime: 0
    m_StartTime: 0
    m_StopTime: 1.5
    m_OrientationOffsetY: 0
    m_Level: 0
    m_CycleOffset: 0
    m_HasAdditiveReferencePose: 0
    m_LoopTime: 1
    m_LoopBlend: 0
    m_LoopBlendOrientation: 0
    m_LoopBlendPositionY: 0
    m_LoopBlendPositionXZ: 0
    m_KeepOriginalOrientation: 0
    m_KeepOriginalPositionY: 1
    m_KeepOriginalPositionXZ: 0
    m_HeightFromFeet: 0
    m_Mirror: 0
  m_EditorCurves: []
  m_EulerEditorCurves: []
  m_HasGenericRootTransform: 0
  m_HasMotionFloatCurves: 0
  m_GenerateMotionCurves: 0
  m_Events: []
